<svg xmlns="http://www.w3.org/2000/svg" width="10.444" height="20" viewBox="0 0 10.444 20">
    <path id="icon-facebook"
          d="M86.778,20V10.889h3.111l.444-3.556H86.778V5.111c0-1,.333-1.778,1.778-1.778h1.889V.111C90,.111,88.889,0,87.667,0a4.289,4.289,0,0,0-4.556,4.667V7.333H80v3.556h3.111V20Z"
          transform="translate(-80)" fill="#fff" fill-rule="evenodd"/>
</svg>
